<?xml version="1.0" encoding="UTF-8"?>
<testsuites name="Mocha Tests" time="0" tests="19" failures="1">
  <testsuite name="Root Suite" timestamp="2021-12-15T07:29:29" tests="0" file="cypress/integration/audit.spec.js" failures="0" time="0">
  </testsuite>
  <testsuite name="Audit Objects" timestamp="2021-12-15T07:29:29" tests="19" failures="1" time="0">
    <testcase name="Audit Objects &quot;before each&quot; hook for &quot;Can Create a Hazard on Audit Object&quot;" time="0" classname="&quot;before each&quot; hook for &quot;Can Create a Hazard on Audit Object&quot;">
      <failure message="Timed out retrying: Expected to find element: `.swal2-cancel`, but never found it.

Because this error occurred during a `before each` hook we are skipping the remaining tests in the current suite: `Audit Objects`" type="AssertionError"><![CDATA[AssertionError: Timed out retrying: Expected to find element: `.swal2-cancel`, but never found it.

Because this error occurred during a `before each` hook we are skipping the remaining tests in the current suite: `Audit Objects`
    at Context.eval (http://localhost:8081/__cypress/tests?p=cypress/integration/auditObject.spec.js:17:12)]]></failure>
    </testcase>
  </testsuite>
</testsuites>