<?xml version="1.0" encoding="UTF-8"?>
<testsuites name="Mocha Tests" time="115.418" tests="7" failures="0">
  <testsuite name="Root Suite" timestamp="2021-12-16T03:47:15" tests="0" file="cypress/integration/audit.spec.js" failures="0" time="0">
  </testsuite>
  <testsuite name="Audits" timestamp="2021-12-16T03:47:15" tests="7" failures="0" time="115.418">
    <testcase name="Audits Creates a new Audit" time="19.001" classname="Creates a new Audit">
    </testcase>
    <testcase name="Audits Autofills for a beach with metadata" time="11.507" classname="Autofills for a beach with metadata">
    </testcase>
    <testcase name="Audits Has Details" time="10.482" classname="Has Details">
    </testcase>
    <testcase name="Audits Edits Details" time="25.589" classname="Edits Details">
    </testcase>
    <testcase name="Audits Cancel Edit Details Does not Change Details" time="20.214" classname="Cancel Edit Details Does not Change Details">
    </testcase>
    <testcase name="Audits Show AuditObject" time="10.163" classname="Show AuditObject">
    </testcase>
    <testcase name="Audits Creates Audit For Empty Assessment" time="18.462" classname="Creates Audit For Empty Assessment">
    </testcase>
  </testsuite>
</testsuites>