<?xml version="1.0" encoding="UTF-8"?>
<testsuites name="Mocha Tests" time="0" tests="1" failures="1">
  <testsuite name="Root Suite" timestamp="2021-12-15T07:30:06" tests="0" file="cypress/integration/auditObject.spec.js" failures="0" time="0">
  </testsuite>
  <testsuite name="Auth" timestamp="2021-12-15T07:30:06" tests="1" failures="1" time="0">
    <testcase name="Auth Can Login" time="0" classname="Can Login">
      <failure message="Timed out retrying: Expected to find element: `.swal2-cancel`, but never found it." type="AssertionError"><![CDATA[AssertionError: Timed out retrying: Expected to find element: `.swal2-cancel`, but never found it.
    at Context.eval (http://localhost:8081/__cypress/tests?p=cypress/integration/auth.spec.js:22:12)]]></failure>
    </testcase>
  </testsuite>
</testsuites>