<?xml version="1.0" encoding="UTF-8"?>
<testsuites name="Mocha Tests" time="281.799" tests="21" failures="0">
  <testsuite name="Root Suite" timestamp="2021-12-16T03:53:20" tests="0" file="cypress/integration/auth.spec.js" failures="0" time="0">
  </testsuite>
  <testsuite name="Offline Audit" timestamp="2021-12-16T03:53:20" tests="21" failures="0" time="281.799">
    <testcase name="Offline Audit Create an Audit" time="18.868" classname="Create an Audit">
    </testcase>
    <testcase name="Offline Audit Has Details" time="7.665" classname="Has Details">
    </testcase>
    <testcase name="Offline Audit Can Edit Details" time="23.113" classname="Can Edit Details">
    </testcase>
    <testcase name="Offline Audit Cancel Edit Details Does not Change Details" time="18.519" classname="Cancel Edit Details Does not Change Details">
    </testcase>
    <testcase name="Offline Audit Can Create an Audit Object" time="10.694" classname="Can Create an Audit Object">
    </testcase>
    <testcase name="Offline Audit Can Edit Audit Object Details" time="18.475" classname="Can Edit Audit Object Details">
    </testcase>
    <testcase name="Offline Audit Can Create a Hazard on Audit Object" time="9.885" classname="Can Create a Hazard on Audit Object">
    </testcase>
    <testcase name="Offline Audit Can Remove a Hazard from Audit Object" time="9.358" classname="Can Remove a Hazard from Audit Object">
    </testcase>
    <testcase name="Offline Audit Can Attach a Hazard to Audit Object" time="9.563" classname="Can Attach a Hazard to Audit Object">
    </testcase>
    <testcase name="Offline Audit Can Create a Sign on Audit Object" time="9.763" classname="Can Create a Sign on Audit Object">
    </testcase>
    <testcase name="Offline Audit Can Remove a Sign from Audit Object" time="9.461" classname="Can Remove a Sign from Audit Object">
    </testcase>
    <testcase name="Offline Audit Can Attach a Sign to Audit Object" time="9.6" classname="Can Attach a Sign to Audit Object">
    </testcase>
    <testcase name="Offline Audit Can Add a Comment" time="15.088" classname="Can Add a Comment">
    </testcase>
    <testcase name="Offline Audit Can Edit a Comment" time="13.406" classname="Can Edit a Comment">
    </testcase>
    <testcase name="Offline Audit Delete a Comment" time="10.561" classname="Delete a Comment">
    </testcase>
    <testcase name="Offline Audit Can Add a Recommendation" time="15.191" classname="Can Add a Recommendation">
    </testcase>
    <testcase name="Offline Audit Can Edit a Recommendation" time="13.745" classname="Can Edit a Recommendation">
    </testcase>
    <testcase name="Offline Audit Delete a Recommendation" time="10.563" classname="Delete a Recommendation">
    </testcase>
    <testcase name="Offline Audit Create a Risk" time="12.668" classname="Create a Risk">
    </testcase>
    <testcase name="Offline Audit Edits a Risk" time="23.458" classname="Edits a Risk">
    </testcase>
    <testcase name="Offline Audit Deletes a Risk" time="12.155" classname="Deletes a Risk">
    </testcase>
  </testsuite>
</testsuites>