<?xml version="1.0" encoding="UTF-8"?>
<testsuites name="Mocha Tests" time="4.007" tests="1" failures="0">
  <testsuite name="Root Suite" timestamp="2021-12-16T03:07:01" tests="0" file="cypress/integration/auditObject.spec.js" failures="0" time="0">
  </testsuite>
  <testsuite name="Auth" timestamp="2021-12-16T03:07:01" tests="1" failures="0" time="4.007">
    <testcase name="Auth Can Login" time="4.007" classname="Can Login">
    </testcase>
  </testsuite>
</testsuites>