<?xml version="1.0" encoding="UTF-8"?>
<testsuites name="Mocha Tests" time="0" tests="7" failures="1">
  <testsuite name="Root Suite" timestamp="2021-12-15T07:24:39" tests="0" file="cypress/integration/audit.spec.js" failures="0" time="0">
  </testsuite>
  <testsuite name="Audits" timestamp="2021-12-15T07:24:39" tests="7" failures="1" time="0">
    <testcase name="Audits &quot;before each&quot; hook for &quot;Creates a new Audit&quot;" time="0" classname="&quot;before each&quot; hook for &quot;Creates a new Audit&quot;">
      <failure message="`cy.visit()` failed trying to load:

http://localhost:8081/

The response we received from your web server was:

  &gt; 500: Server Error

This was considered a failure because the status code was not `2xx`.

If you do not want status codes to cause failures pass the option: `failOnStatusCode: false`

Because this error occurred during a `before each` hook we are skipping the remaining tests in the current suite: `Audits`" type="CypressError"><![CDATA[CypressError: `cy.visit()` failed trying to load:

http://localhost:8081/

The response we received from your web server was:

  > 500: Server Error

This was considered a failure because the status code was not `2xx`.

If you do not want status codes to cause failures pass the option: `failOnStatusCode: false`

Because this error occurred during a `before each` hook we are skipping the remaining tests in the current suite: `Audits`
    at http://localhost:8081/__cypress/runner/cypress_runner.js:156721:25
    at visitFailedByErr (http://localhost:8081/__cypress/runner/cypress_runner.js:156098:12)
    at http://localhost:8081/__cypress/runner/cypress_runner.js:156701:13
    at tryCatcher (http://localhost:8081/__cypress/runner/cypress_runner.js:9956:23)
    at Promise._settlePromiseFromHandler (http://localhost:8081/__cypress/runner/cypress_runner.js:7891:31)
    at Promise._settlePromise (http://localhost:8081/__cypress/runner/cypress_runner.js:7948:18)
    at Promise._settlePromise0 (http://localhost:8081/__cypress/runner/cypress_runner.js:7993:10)
    at Promise._settlePromises (http://localhost:8081/__cypress/runner/cypress_runner.js:8069:18)
    at _drainQueueStep (http://localhost:8081/__cypress/runner/cypress_runner.js:4663:12)
    at _drainQueue (http://localhost:8081/__cypress/runner/cypress_runner.js:4656:9)
    at Async.../../node_modules/bluebird/js/release/async.js.Async._drainQueues (http://localhost:8081/__cypress/runner/cypress_runner.js:4672:5)
    at Async.drainQueues (http://localhost:8081/__cypress/runner/cypress_runner.js:4542:14)
From Your Spec Code:
    at Context.eval (http://localhost:8081/__cypress/tests?p=cypress/integration/audit.spec.js:10:8)]]></failure>
    </testcase>
  </testsuite>
</testsuites>