<?xml version="1.0" encoding="UTF-8"?>
<testsuites name="Mocha Tests" time="69.306" tests="7" failures="3">
  <testsuite name="Root Suite" timestamp="2021-12-16T02:50:29" tests="0" file="cypress/integration/audit.spec.js" failures="0" time="0">
  </testsuite>
  <testsuite name="Audits" timestamp="2021-12-16T02:50:29" tests="7" failures="3" time="69.306">
    <testcase name="Audits Creates a new Audit" time="0" classname="Creates a new Audit">
      <failure message="Timed out retrying: `cy.select()` failed because it could not find a single `&lt;option&gt;` with value or text matching: `1`

https://on.cypress.io/select" type="CypressError"><![CDATA[CypressError: Timed out retrying: `cy.select()` failed because it could not find a single `<option>` with value or text matching: `1`

https://on.cypress.io/select
    at getOptions (http://localhost:8081/__cypress/runner/cypress_runner.js:152084:21)
    at tryCatcher (http://localhost:8081/__cypress/runner/cypress_runner.js:9956:23)
    at Function.Promise.attempt.Promise.try (http://localhost:8081/__cypress/runner/cypress_runner.js:7230:29)
    at retryOptions (http://localhost:8081/__cypress/runner/cypress_runner.js:152122:30)
    at tryCatcher (http://localhost:8081/__cypress/runner/cypress_runner.js:9956:23)
    at Function.Promise.attempt.Promise.try (http://localhost:8081/__cypress/runner/cypress_runner.js:7230:29)
    at tryFn (http://localhost:8081/__cypress/runner/cypress_runner.js:163280:24)
    at whenStable (http://localhost:8081/__cypress/runner/cypress_runner.js:163321:12)
    at http://localhost:8081/__cypress/runner/cypress_runner.js:162839:16
    at tryCatcher (http://localhost:8081/__cypress/runner/cypress_runner.js:9956:23)
    at Promise._settlePromiseFromHandler (http://localhost:8081/__cypress/runner/cypress_runner.js:7891:31)
    at Promise._settlePromise (http://localhost:8081/__cypress/runner/cypress_runner.js:7948:18)
    at Promise._settlePromise0 (http://localhost:8081/__cypress/runner/cypress_runner.js:7993:10)
    at Promise._settlePromises (http://localhost:8081/__cypress/runner/cypress_runner.js:8073:18)
    at Promise._fulfill (http://localhost:8081/__cypress/runner/cypress_runner.js:8017:18)
    at http://localhost:8081/__cypress/runner/cypress_runner.js:9631:46
From Your Spec Code:
    at Context.eval (http://localhost:8081/__cypress/tests?p=cypress/integration/audit.spec.js:47:31)]]></failure>
    </testcase>
    <testcase name="Audits Autofills for a beach with metadata" time="0" classname="Autofills for a beach with metadata">
      <failure message="Timed out retrying: `cy.select()` failed because it could not find a single `&lt;option&gt;` with value or text matching: `7`

https://on.cypress.io/select" type="CypressError"><![CDATA[CypressError: Timed out retrying: `cy.select()` failed because it could not find a single `<option>` with value or text matching: `7`

https://on.cypress.io/select
    at getOptions (http://localhost:8081/__cypress/runner/cypress_runner.js:152084:21)
    at tryCatcher (http://localhost:8081/__cypress/runner/cypress_runner.js:9956:23)
    at Function.Promise.attempt.Promise.try (http://localhost:8081/__cypress/runner/cypress_runner.js:7230:29)
    at retryOptions (http://localhost:8081/__cypress/runner/cypress_runner.js:152122:30)
    at tryCatcher (http://localhost:8081/__cypress/runner/cypress_runner.js:9956:23)
    at Function.Promise.attempt.Promise.try (http://localhost:8081/__cypress/runner/cypress_runner.js:7230:29)
    at tryFn (http://localhost:8081/__cypress/runner/cypress_runner.js:163280:24)
    at whenStable (http://localhost:8081/__cypress/runner/cypress_runner.js:163321:12)
    at http://localhost:8081/__cypress/runner/cypress_runner.js:162839:16
    at tryCatcher (http://localhost:8081/__cypress/runner/cypress_runner.js:9956:23)
    at Promise._settlePromiseFromHandler (http://localhost:8081/__cypress/runner/cypress_runner.js:7891:31)
    at Promise._settlePromise (http://localhost:8081/__cypress/runner/cypress_runner.js:7948:18)
    at Promise._settlePromise0 (http://localhost:8081/__cypress/runner/cypress_runner.js:7993:10)
    at Promise._settlePromises (http://localhost:8081/__cypress/runner/cypress_runner.js:8073:18)
    at Promise._fulfill (http://localhost:8081/__cypress/runner/cypress_runner.js:8017:18)
    at http://localhost:8081/__cypress/runner/cypress_runner.js:9631:46
From Your Spec Code:
    at Context.eval (http://localhost:8081/__cypress/tests?p=cypress/integration/audit.spec.js:70:31)]]></failure>
    </testcase>
    <testcase name="Audits Has Details" time="10.936" classname="Has Details">
    </testcase>
    <testcase name="Audits Edits Details" time="26.978" classname="Edits Details">
    </testcase>
    <testcase name="Audits Cancel Edit Details Does not Change Details" time="21.269" classname="Cancel Edit Details Does not Change Details">
    </testcase>
    <testcase name="Audits Show AuditObject" time="10.123" classname="Show AuditObject">
    </testcase>
    <testcase name="Audits Creates Audit For Empty Assessment" time="0" classname="Creates Audit For Empty Assessment">
      <failure message="Timed out retrying: `cy.select()` failed because it could not find a single `&lt;option&gt;` with value or text matching: `1`

https://on.cypress.io/select" type="CypressError"><![CDATA[CypressError: Timed out retrying: `cy.select()` failed because it could not find a single `<option>` with value or text matching: `1`

https://on.cypress.io/select
    at getOptions (http://localhost:8081/__cypress/runner/cypress_runner.js:152084:21)
    at tryCatcher (http://localhost:8081/__cypress/runner/cypress_runner.js:9956:23)
    at Function.Promise.attempt.Promise.try (http://localhost:8081/__cypress/runner/cypress_runner.js:7230:29)
    at retryOptions (http://localhost:8081/__cypress/runner/cypress_runner.js:152122:30)
    at tryCatcher (http://localhost:8081/__cypress/runner/cypress_runner.js:9956:23)
    at Function.Promise.attempt.Promise.try (http://localhost:8081/__cypress/runner/cypress_runner.js:7230:29)
    at tryFn (http://localhost:8081/__cypress/runner/cypress_runner.js:163280:24)
    at whenStable (http://localhost:8081/__cypress/runner/cypress_runner.js:163321:12)
    at http://localhost:8081/__cypress/runner/cypress_runner.js:162839:16
    at tryCatcher (http://localhost:8081/__cypress/runner/cypress_runner.js:9956:23)
    at Promise._settlePromiseFromHandler (http://localhost:8081/__cypress/runner/cypress_runner.js:7891:31)
    at Promise._settlePromise (http://localhost:8081/__cypress/runner/cypress_runner.js:7948:18)
    at Promise._settlePromise0 (http://localhost:8081/__cypress/runner/cypress_runner.js:7993:10)
    at Promise._settlePromises (http://localhost:8081/__cypress/runner/cypress_runner.js:8073:18)
    at Promise._fulfill (http://localhost:8081/__cypress/runner/cypress_runner.js:8017:18)
    at http://localhost:8081/__cypress/runner/cypress_runner.js:9631:46
From Your Spec Code:
    at Context.eval (http://localhost:8081/__cypress/tests?p=cypress/integration/audit.spec.js:190:31)]]></failure>
    </testcase>
  </testsuite>
</testsuites>