<?xml version="1.0" encoding="UTF-8"?>
<testsuites name="Mocha Tests" time="123.36600000000001" tests="7" failures="0">
  <testsuite name="Root Suite" timestamp="2021-12-16T03:00:54" tests="0" file="cypress/integration/audit.spec.js" failures="0" time="0">
  </testsuite>
  <testsuite name="Audits" timestamp="2021-12-16T03:00:54" tests="7" failures="0" time="123.36600000000001">
    <testcase name="Audits Creates a new Audit" time="18.686" classname="Creates a new Audit">
    </testcase>
    <testcase name="Audits Autofills for a beach with metadata" time="11.416" classname="Autofills for a beach with metadata">
    </testcase>
    <testcase name="Audits Has Details" time="10.446" classname="Has Details">
    </testcase>
    <testcase name="Audits Edits Details" time="25.692" classname="Edits Details">
    </testcase>
    <testcase name="Audits Cancel Edit Details Does not Change Details" time="20.244" classname="Cancel Edit Details Does not Change Details">
    </testcase>
    <testcase name="Audits Show AuditObject" time="18.162" classname="Show AuditObject">
    </testcase>
    <testcase name="Audits Creates Audit For Empty Assessment" time="18.72" classname="Creates Audit For Empty Assessment">
    </testcase>
  </testsuite>
</testsuites>