<?xml version="1.0" encoding="UTF-8"?>
<testsuites name="Mocha Tests" time="203.81599999999997" tests="19" failures="0">
  <testsuite name="Root Suite" timestamp="2021-12-16T03:49:23" tests="0" file="cypress/integration/audit.spec.js" failures="0" time="0">
  </testsuite>
  <testsuite name="Audit Objects" timestamp="2021-12-16T03:49:23" tests="19" failures="0" time="203.81599999999997">
    <testcase name="Audit Objects Can Create a Hazard on Audit Object" time="10.364" classname="Can Create a Hazard on Audit Object">
    </testcase>
    <testcase name="Audit Objects Can Remove a Hazard from Audit Object" time="9.979" classname="Can Remove a Hazard from Audit Object">
    </testcase>
    <testcase name="Audit Objects Can Attach a Hazard to Audit Object" time="11.591" classname="Can Attach a Hazard to Audit Object">
    </testcase>
    <testcase name="Audit Objects Can Create a Sign on Audit Object" time="9.61" classname="Can Create a Sign on Audit Object">
    </testcase>
    <testcase name="Audit Objects Can Remove a Sign from Audit Object" time="9.72" classname="Can Remove a Sign from Audit Object">
    </testcase>
    <testcase name="Audit Objects Can Attach a Sign to Audit Object" time="9.821" classname="Can Attach a Sign to Audit Object">
    </testcase>
    <testcase name="Audit Objects Adds a Comment" time="10.216" classname="Adds a Comment">
    </testcase>
    <testcase name="Audit Objects Edits a Comment" time="13.689" classname="Edits a Comment">
    </testcase>
    <testcase name="Audit Objects Delete a Comment" time="9.009" classname="Delete a Comment">
    </testcase>
    <testcase name="Audit Objects Adds a Recommendation" time="10.242" classname="Adds a Recommendation">
    </testcase>
    <testcase name="Audit Objects Edits a Recommendation" time="13.479" classname="Edits a Recommendation">
    </testcase>
    <testcase name="Audit Objects Delete a Recommendation" time="9.167" classname="Delete a Recommendation">
    </testcase>
    <testcase name="Audit Objects Creates an AuditObject" time="8.328" classname="Creates an AuditObject">
    </testcase>
    <testcase name="Audit Objects Edits Details" time="16.87" classname="Edits Details">
    </testcase>
    <testcase name="Audit Objects Edits a Risk" time="11.653" classname="Edits a Risk">
    </testcase>
    <testcase name="Audit Objects Creates an AuditObject On Empty Audit" time="8.648" classname="Creates an AuditObject On Empty Audit">
    </testcase>
    <testcase name="Audit Objects Adds Comment to Empty AuditObject" time="9.788" classname="Adds Comment to Empty AuditObject">
    </testcase>
    <testcase name="Audit Objects Adds Recommendation to Empty AuditObject" time="9.913" classname="Adds Recommendation to Empty AuditObject">
    </testcase>
    <testcase name="Audit Objects Adds Risk to Empty AuditObject" time="11.729" classname="Adds Risk to Empty AuditObject">
    </testcase>
  </testsuite>
</testsuites>